Device ID	Device Name
c87dbd3b4793547f3422ac5423e4d529d399a733	Fawzi  - iPhone 7
a25f3745e59abdc5e1174be86416feaad3cb5b80	Qaddomy - iPhone 7
4a53313d577d7f745a1b2d9515cbc4a59c95048f	coolex-Qaddomy - iPhone X
fa0677293f943bc3e0315078dffdcb0543f9c550	coolex-Qaddomy - iPad mini 3
4aceec782c791b03340fb5e4aa105f90afdd49ce	coolex-Qaddomy - iPad mini 2
e7b9dbfc41366a8f83033400d22eda0eabd6c8c9	coolex-Qaddomy - iPad mini
83c5226e1f4f3bd2514cad74e5fd8c0233e9d848	coolex-Qaddomy - iPad mini
02993a7c504cc137ff8cb0bdbdc73c82b36e0a71	coolex-Qaddomy - iPad mini
fd2fab6eafbe5546b21d247226376b8f45124953	coolex-Vijesh Ayyappa Kutty
c7f99633aec049b2106029caa6b3311b96ba0808	coolex-Moothassary Joy Jobin
0e3b72f2ddfe92adb59090fe756e6af10e718466	coolex-Sakib Siraj Janjirkar
bbc339f591da78b0a54a45b1839a096d6198dab0	coolex-Caetano Paulo Mascarenhas
ee7eba0c550b26719f1508ce118388f2c494be6a	coolex-Waseem Zahid Husain Jhatam
bfc13c5818e1c2cf9c02612a2694fefa64a61d35	coolex-Imran Dawood Talsulkar
6c74dfb7173383fc856977487bdc4fa0485240f1	coolex-Surendar Singh Chauhan
2bd3435a5a04f3264aa55aff792a5751b65bc595	coolex-Mohammed Nishad Vattappillyk Saidu
2780085da593a648f293210b0db76665e58ec4b5	coolex-Khambre Sayeed Shaikh Ali
213ac82b642c7af941ccd75484ea3b0e312229ee	coolex-Muktyar Mahamud Bandarkar
cbe03af6bebfb6710c4183ee1d32d6fc789a6c2c	coolex-Abbu Salaem Kalyankar
a208f9282191e02288f05b016ccc3c86c6ad2c64	coolex-Manjunath Krishnappa Naik
dbe6747c7531465c3772c0bfc46b275478fd2d89	coolex-Abraham Mathew
f57e529d1be585862b10263dbc19f1dcca2b39a4	coolex-Mohammed Ali Mohammed Miya Adhikari
b3b00be7c2286af3526cead63856f94f04b52fce	coolex-Aton Diyog Fernandes
c45734eb0d6bf72403e418d6531a49967667e196	coolex-Mohammed Nurulalam Mohammed Abdulhashem
2b8200bc8d135e04b2fe582041da1d80f27d3ef3	coolex-Parvez Hassan Sayyed
a7472e250430f5e05a5b659a6752b79e84ccbf00	coolex-Shahin Uddin Azim Uddin
49869bdee97f7359c6f7f94b8246ed3179c9f0ff	coolex-Suresh Kumar Markandu
dee55b127cc091f99eb8ada3c582b3e999ec8558	coolex-Silva Sudarshana
62726a40f79d34d1047799e8b9884405fd1f8196	coolex-Manikantan Krishnan Rajan Rajan
599e746f571ead7d88c8e659dd36897dd8aff8ec	coolex-Aftab Ahmed Munawar Khan
3df5cb98e56c950570890aef0649c113f1c1d7eb	coolex-Hibban Alimiyan Thakur
717a8115c7ec546390861f7daab2305ce4bf5264	coolex-Mohammed Azizul Hakim Mohammed
8acd81c64367f056520471a4e7bf3cb30a5c0970	coolex-Mohammed Rizwan Noor Chowdhar
4d0ba2bb4bede3a835f6ff2d5c03a30ed1cc6bac	coolex-Faiyaz Abdulla Pantave
10dd42b0bc2be2d96b417be3c777f3508a948d31	coolex-Anil Sebastian Nazareth
b1a14c3cdb1515a692253030446b116c277a52ef	coolex-Ratheesh Kumar Mangalamadam Ponnappan
5a2be538284ada6a49b94625be3dd6d83dc92e06	coolex-Naseem Khan
02b8417a5adf33603f673cc659db480052540b4e	coolex-Iqbal Gulam Mohamed Shaikh
0abeaf609156cfb2736c675849fb72b941d78bd5	coolex-Ayyaj Parande Najir
c0fd71b18c98ffb68d13da6143f01aa0c8394bef	coolex-Kareem Mostafa Ali Ahmad
25ccaa37a6d9433e93be8b3f171b8c7ec1b4f3fc	coolex-Marvin Aquino Agustin
d3e433b27d890833ddf4a91dfbc64fc59ba27d33	coolex-Lazarus Varkees
620f6f56d9e88baa18f112b62e3f834dddbeda3d	coolex-Rodel Betos Melendres
ca62a3d13b9b42420226852985af26a185b242d4	coolex-Chamila Pethum Assellage
1d6a44d9a2938ce90c87804cba68304fccb6339b	coolex-Alex Lodor
8ee29bc2e24dd166016548f975624c16ace57939	coolex-Kevin Bryan Chavez Rosete
7b8d6d615c32b4dd59377acea1db19012d1d221e	coolex-Khan Imran Gafoor
223c67cc496cc9afe56717951f2604c38e45b148	coolex-Imran Khan Phatan
2fb1dca52025ce74c5b50f6c04f7e157a044e1af	coolex-Justinano  Tabunon
8e3d8785c5aeb50ba53730275409bbe09e8db3e2	coolex-Shiju George George
2f8df3389b94b02ab6a2ba9230d03e34eedc26db	coolex-Afzal Mohammed Najim Ansari
88bff8c82c7c407c3c73a67dcb0ecd0c6562cfda	coolex-Shehbaz Arif Shaikh
299aee8b072f03e069f2347304364a44078086bc	coolex-Soheb Razaq Haju
b8f0fd288a1c803689a24ab4fd4b80e6b9f81385	coolex-Asif Shaukat Mahaldar
65e4f2acc808fb1e5b660bc9e060efa58949b20d	coolex-Muhammed Shefil Chalathparambil Salim
e3a470a069c68f8fc5c53a9d70ab757c3038a24d	coolex-Muhammed Naeem Bappan Kandy Abdulazeez
05891acd3611b8c655f1eafa222dc2968fc54438	coolex-Maqsood Abdul Lateef Balbale
947c945f3298264812ec724a44dfe9420b36f9aa	coolex-Muthu Krisnan Ananda Narayanan
eb6dd53f0858a2adf71890f3764ddea61b28f292	coolex-Israt Ali Khan
c8bd691898d3a4ec095178402d51d3bb8368fca1	coolex-Geraldine Bachao Godoy
d41c4954e0e7a6d07607e97d76b4ebe7fea821bd	coolex-Mohammed Asif Bashir
ddbb64bdd30202c41c75974f7e83bd36263b4eb3	coolex-Fahid Ashraf Chougle
85b0bff4fbe8cca3050b842ea35a1d306d4b4bb7	coolex-Ajesh Pushpalayan Pushpalayan
b5bbe037c60f9fe6bb8e21bbed041db361117315	coolex-Ajmal Ansari
250d21b5036f5e7969111603482093de3f7aac9b	coolex-Thomas Mathai Kulakkadu
cc42563adef7a1c429e7c9fe3bb9151bd0444dc0	coolex-Mohammed Yunus Usman Momin
27ec00bc437362bef62f61ddfb31ce378226cea5	coolex-Nidaf Haju Razzak Haju
40df9eac7ef691ba5890a328ff6a3a3b87c41287	coolex-Kalum Sampath Punchihewage
963cba3d95e27b601f66a6b4d208777ddf136980	coolex-Sabu Basheer
af4a7b70926c6d8643e1df6e0fb13e30263f7b8f	coolex-Rakesh Radhakrishnan Radhakrishnan
87d507c00d74fcf1eb5ae12e409a8d1f39e69678	coolex-Durgesh Gupta Mohan
0ca560909631252d0436ab5633807c1ff713700d	coolex-Feeroz Khan Ramzan Khan
51b660600183a97d7a043040cfc3d1ef4aa6ce7e	coolex-Ismail Mohamed Saleem
e41b2ecbfd2989c679dfbb0c2276e48195f3792c	coolex-Sarver Abdul Sattar Karbelkar
94a11b288b492a35359a36ad781a3680ad0d1fdb	coolex-Tawsif Mahamood Alekar
8370282f2095e464b73c3093a5eb5eb7f9fa2c19	coolex-Mazar Makbool Attar
